 ______                ______        ________         ______              ______   _______  
|      \              |      \      |        \       /      \            /      \ |       \ 
 \$$$$$$ _______       \$$$$$$ ______\$$$$$$$$      |  $$$$$$\  ______  |  $$$$$$\| $$$$$$$\
  | $$  |       \       | $$  /      \ | $$         | $$   \$$ /      \ | $$__| $$| $$__/ $$
  | $$  | $$$$$$$\      | $$ |  $$$$$$\| $$         | $$      |  $$$$$$\| $$    $$| $$    $$
  | $$  | $$  | $$      | $$ | $$  | $$| $$         | $$   __ | $$  | $$| $$$$$$$$| $$$$$$$ 
 _| $$_ | $$  | $$ __  _| $$_| $$__/ $$| $$         | $$__/  \| $$__/ $$| $$  | $$| $$      
|   $$ \| $$  | $$|  \|   $$ \\$$    $$| $$          \$$    $$ \$$    $$| $$  | $$| $$      
 \$$$$$$ \$$   \$$ \$$ \$$$$$$ \$$$$$$  \$$           \$$$$$$   \$$$$$$  \$$   \$$ \$$      
                                                                                            
                                                                                            
                                                                                            